Date,days,GO,GO_Earn,GOplus,GOplus_Earn,Business,Business_Earn
1-Jan-19,1,5,2200,5,2800,5,4400
2-Jan-19,2,12,2640,12,3360,12,5280
3-Jan-19,3,14,2200,14,2800,14,4400
4-Jan-19,4,11,2420,11,3080,11,4840
5-Jan-19,5,12,2640,12,3360,12,5280
6-Jan-19,6,12,2640,12,3360,12,5280
7-Jan-19,7,9,1980,9,2520,9,3960
8-Jan-19,8,5,1100,5,1400,5,2200
9-Jan-19,9,8,1760,8,2240,8,3520
10-Jan-19,10,3,660,6,1680,6,2640
11-Jan-19,11,7,1540,7,1960,7,3080
12-Jan-19,12,3,660,8,2240,8,3520
13-Jan-19,13,5,1100,5,1400,5,2200
14-Jan-19,14,8,1760,8,2240,8,3520
15-Jan-19,15,9,1980,9,2520,9,3960
16-Jan-19,16,10,2200,10,2800,10,4400
17-Jan-19,17,11,2420,11,3080,11,4840
18-Jan-19,18,NA,#VALUE!,NA,#VALUE!,NA,#VALUE!
19-Jan-19,19,6,1320,6,1680,6,2640
20-Jan-19,20,5,1100,5,1400,5,2200
21-Jan-19,21,4,880,4,1120,4,1760
22-Jan-19,22,3,660,3,840,3,1320
23-Jan-19,23,11,2420,11,3080,11,4840
24-Jan-19,24,8,1760,8,2240,8,3520
25-Jan-19,25,6,1320,6,1680,NA,#VALUE!
26-Jan-19,26,5,1100,5,1400,5,2200
27-Jan-19,27,4,880,4,1120,4,1760
28-Jan-19,28,14,3080,14,3920,14,6160
